{
  "title": "Tutorial - Extras",
  "slug": "/category/tutorial---extras",
  "permalink": "/siteprod/docs/category/tutorial---extras",
  "navigation": {
    "previous": {
      "title": "Congratulations!",
      "permalink": "/siteprod/docs/tutorial-basics/congratulations"
    },
    "next": {
      "title": "Manage Docs Versions",
      "permalink": "/siteprod/docs/tutorial-extras/manage-docs-versions"
    }
  }
}