{
  "entrypoints": [
    "main"
  ],
  "origins": {
    "2237": [
      2237
    ],
    "5533": [
      1869,
      3249,
      4813,
      6061,
      7643,
      8401,
      8747,
      5533
    ],
    "8747": [
      1869,
      3249,
      4813,
      5533,
      7643,
      8747
    ],
    "17896441": [
      1869,
      5533,
      8401
    ],
    "59362658": [
      9325
    ],
    "main": [
      1869,
      5354,
      8792
    ],
    "runtime~main": [
      1869,
      8792,
      5354
    ],
    "01a85c17": [
      1869,
      8209
    ],
    "0e384e19": [
      3976
    ],
    "116e0471": [
      7650
    ],
    "1180ae83": [
      356
    ],
    "14b1200f": [
      9771
    ],
    "14eb3368": [
      1869,
      6969
    ],
    "18c41134": [
      9262
    ],
    "19acdbb1": [
      8700
    ],
    "1e4232ab": [
      1953
    ],
    "1f391b9e": [
      1869,
      5533,
      6061
    ],
    "29d61a6b": [
      648
    ],
    "38df7c1a": [
      8288
    ],
    "393be207": [
      4134
    ],
    "4f1db316": [
      774
    ],
    "533a09ca": [
      3098
    ],
    "56104d96": [
      6384
    ],
    "5c868d36": [
      1974
    ],
    "5e095005": [
      8934
    ],
    "5e95c892": [
      9647
    ],
    "6875c492": [
      1869,
      5533,
      8747,
      4813
    ],
    "73664a40": [
      1972
    ],
    "7661071f": [
      8737
    ],
    "814f3328": [
      7472
    ],
    "822bd8ab": [
      2748
    ],
    "827e4c93": [
      7334
    ],
    "869a515f": [
      3148
    ],
    "8717b14a": [
      3694
    ],
    "925b3f96": [
      8609
    ],
    "935f2afb": [
      8581
    ],
    "9e4087bc": [
      2711
    ],
    "a6aa9e1f": [
      1869,
      5533,
      8747,
      7643
    ],
    "a7bd4aaa": [
      7098
    ],
    "a94703ab": [
      1869,
      9048
    ],
    "c265d4b4": [
      873
    ],
    "c4f5d8e4": [
      1869,
      2634
    ],
    "ccc49370": [
      1869,
      5533,
      8747,
      3249
    ],
    "cdc59893": [
      5005
    ],
    "d9f32620": [
      5557
    ],
    "dff1c289": [
      1724
    ],
    "e0938e2a": [
      3238
    ],
    "e273c56f": [
      9328
    ],
    "e44a2883": [
      4736
    ],
    "eb7f898f": [
      9170
    ],
    "f4f34a3a": [
      3637
    ],
    "f55d3e7a": [
      8863
    ],
    "f860c6a2": [
      3797
    ],
    "styles": [
      2634,
      3249,
      4813,
      5354,
      5533,
      6061,
      6969,
      7643,
      8209,
      8401,
      8747,
      8792,
      9048,
      1869
    ]
  },
  "assets": {
    "356": {
      "js": [
        {
          "file": "assets/js/1180ae83.c25ed8e1.js",
          "hash": "b35d29e40e827849",
          "publicPath": "/siteprod/assets/js/1180ae83.c25ed8e1.js"
        }
      ]
    },
    "648": {
      "js": [
        {
          "file": "assets/js/29d61a6b.9d5ababd.js",
          "hash": "cab17ca9e85379f3",
          "publicPath": "/siteprod/assets/js/29d61a6b.9d5ababd.js"
        }
      ]
    },
    "774": {
      "js": [
        {
          "file": "assets/js/4f1db316.ccca9f28.js",
          "hash": "73e50d9d22cfdd54",
          "publicPath": "/siteprod/assets/js/4f1db316.ccca9f28.js"
        }
      ]
    },
    "873": {
      "js": [
        {
          "file": "assets/js/c265d4b4.329d21fd.js",
          "hash": "61ba875504964356",
          "publicPath": "/siteprod/assets/js/c265d4b4.329d21fd.js"
        }
      ]
    },
    "1724": {
      "js": [
        {
          "file": "assets/js/dff1c289.434dc55a.js",
          "hash": "97dba84f36033d86",
          "publicPath": "/siteprod/assets/js/dff1c289.434dc55a.js"
        }
      ]
    },
    "1869": {
      "css": [
        {
          "file": "assets/css/styles.0c6a6cd2.css",
          "hash": "10be83743fe36a22",
          "publicPath": "/siteprod/assets/css/styles.0c6a6cd2.css"
        }
      ]
    },
    "1953": {
      "js": [
        {
          "file": "assets/js/1e4232ab.9fc0cc6b.js",
          "hash": "a61a146dd172f80f",
          "publicPath": "/siteprod/assets/js/1e4232ab.9fc0cc6b.js"
        }
      ]
    },
    "1972": {
      "js": [
        {
          "file": "assets/js/73664a40.315a0fa3.js",
          "hash": "4b7cf2f97daabce3",
          "publicPath": "/siteprod/assets/js/73664a40.315a0fa3.js"
        }
      ]
    },
    "1974": {
      "js": [
        {
          "file": "assets/js/5c868d36.b075640c.js",
          "hash": "ae817de56a9ccec5",
          "publicPath": "/siteprod/assets/js/5c868d36.b075640c.js"
        }
      ]
    },
    "2237": {
      "js": [
        {
          "file": "assets/js/2237.3658d2c4.js",
          "hash": "f9fc817fb4620d23",
          "publicPath": "/siteprod/assets/js/2237.3658d2c4.js"
        }
      ]
    },
    "2634": {
      "js": [
        {
          "file": "assets/js/c4f5d8e4.265fe5a4.js",
          "hash": "21840d6c4914248b",
          "publicPath": "/siteprod/assets/js/c4f5d8e4.265fe5a4.js"
        }
      ]
    },
    "2711": {
      "js": [
        {
          "file": "assets/js/9e4087bc.e1aa0efd.js",
          "hash": "dd8e1f42aebc280f",
          "publicPath": "/siteprod/assets/js/9e4087bc.e1aa0efd.js"
        }
      ]
    },
    "2748": {
      "js": [
        {
          "file": "assets/js/822bd8ab.8682bfd9.js",
          "hash": "05cfb8b2b6924049",
          "publicPath": "/siteprod/assets/js/822bd8ab.8682bfd9.js"
        }
      ]
    },
    "3098": {
      "js": [
        {
          "file": "assets/js/533a09ca.1f59d9fc.js",
          "hash": "f8ff1c3c2e62847d",
          "publicPath": "/siteprod/assets/js/533a09ca.1f59d9fc.js"
        }
      ]
    },
    "3148": {
      "js": [
        {
          "file": "assets/js/869a515f.b377a2cb.js",
          "hash": "349687fe971ca2dd",
          "publicPath": "/siteprod/assets/js/869a515f.b377a2cb.js"
        }
      ]
    },
    "3238": {
      "js": [
        {
          "file": "assets/js/e0938e2a.1bb24d37.js",
          "hash": "f064a5297f26396c",
          "publicPath": "/siteprod/assets/js/e0938e2a.1bb24d37.js"
        }
      ]
    },
    "3249": {
      "js": [
        {
          "file": "assets/js/ccc49370.2a74e0ca.js",
          "hash": "f1718f647200c8d0",
          "publicPath": "/siteprod/assets/js/ccc49370.2a74e0ca.js"
        }
      ]
    },
    "3637": {
      "js": [
        {
          "file": "assets/js/f4f34a3a.2b3d054d.js",
          "hash": "b1139369990fcd59",
          "publicPath": "/siteprod/assets/js/f4f34a3a.2b3d054d.js"
        }
      ]
    },
    "3694": {
      "js": [
        {
          "file": "assets/js/8717b14a.153fe25c.js",
          "hash": "d9f7f92b5c9e8b24",
          "publicPath": "/siteprod/assets/js/8717b14a.153fe25c.js"
        }
      ]
    },
    "3797": {
      "js": [
        {
          "file": "assets/js/f860c6a2.beb1047c.js",
          "hash": "7bd71a8cdba2c456",
          "publicPath": "/siteprod/assets/js/f860c6a2.beb1047c.js"
        }
      ]
    },
    "3976": {
      "js": [
        {
          "file": "assets/js/0e384e19.ecf3bf2a.js",
          "hash": "203bb196b0b967f9",
          "publicPath": "/siteprod/assets/js/0e384e19.ecf3bf2a.js"
        }
      ]
    },
    "4134": {
      "js": [
        {
          "file": "assets/js/393be207.0c8d493e.js",
          "hash": "99185e1faa7d3555",
          "publicPath": "/siteprod/assets/js/393be207.0c8d493e.js"
        }
      ]
    },
    "4736": {
      "js": [
        {
          "file": "assets/js/e44a2883.00660898.js",
          "hash": "0de8f36116cb4501",
          "publicPath": "/siteprod/assets/js/e44a2883.00660898.js"
        }
      ]
    },
    "4813": {
      "js": [
        {
          "file": "assets/js/6875c492.796ccdba.js",
          "hash": "505166541e4903c0",
          "publicPath": "/siteprod/assets/js/6875c492.796ccdba.js"
        }
      ]
    },
    "5005": {
      "js": [
        {
          "file": "assets/js/cdc59893.a879e1dc.js",
          "hash": "abffdee4e85608ec",
          "publicPath": "/siteprod/assets/js/cdc59893.a879e1dc.js"
        }
      ]
    },
    "5354": {
      "js": [
        {
          "file": "assets/js/runtime~main.3d0cf61e.js",
          "hash": "190f0511ecc8239e",
          "publicPath": "/siteprod/assets/js/runtime~main.3d0cf61e.js"
        }
      ]
    },
    "5533": {
      "js": [
        {
          "file": "assets/js/5533.6a8aee14.js",
          "hash": "03d3a5e05efc04c9",
          "publicPath": "/siteprod/assets/js/5533.6a8aee14.js"
        }
      ]
    },
    "5557": {
      "js": [
        {
          "file": "assets/js/d9f32620.7ae7b243.js",
          "hash": "8e7d40cee3625958",
          "publicPath": "/siteprod/assets/js/d9f32620.7ae7b243.js"
        }
      ]
    },
    "6061": {
      "js": [
        {
          "file": "assets/js/1f391b9e.b23727cf.js",
          "hash": "6cffaa10a352f100",
          "publicPath": "/siteprod/assets/js/1f391b9e.b23727cf.js"
        }
      ]
    },
    "6384": {
      "js": [
        {
          "file": "assets/js/56104d96.05adb53a.js",
          "hash": "525b0450ab21739d",
          "publicPath": "/siteprod/assets/js/56104d96.05adb53a.js"
        }
      ]
    },
    "6969": {
      "js": [
        {
          "file": "assets/js/14eb3368.76e03ae5.js",
          "hash": "290a8f04dec44f3f",
          "publicPath": "/siteprod/assets/js/14eb3368.76e03ae5.js"
        }
      ]
    },
    "7098": {
      "js": [
        {
          "file": "assets/js/a7bd4aaa.46aa1194.js",
          "hash": "269e055b60bb6930",
          "publicPath": "/siteprod/assets/js/a7bd4aaa.46aa1194.js"
        }
      ]
    },
    "7334": {
      "js": [
        {
          "file": "assets/js/827e4c93.40b55ed1.js",
          "hash": "0316e321c67d3104",
          "publicPath": "/siteprod/assets/js/827e4c93.40b55ed1.js"
        }
      ]
    },
    "7472": {
      "js": [
        {
          "file": "assets/js/814f3328.2f67639d.js",
          "hash": "7233498f3ea0d75c",
          "publicPath": "/siteprod/assets/js/814f3328.2f67639d.js"
        }
      ]
    },
    "7643": {
      "js": [
        {
          "file": "assets/js/a6aa9e1f.c869a19b.js",
          "hash": "6cd2243ea26eb58a",
          "publicPath": "/siteprod/assets/js/a6aa9e1f.c869a19b.js"
        }
      ]
    },
    "7650": {
      "js": [
        {
          "file": "assets/js/116e0471.fdee7b73.js",
          "hash": "b811aa15b3bc3007",
          "publicPath": "/siteprod/assets/js/116e0471.fdee7b73.js"
        }
      ]
    },
    "8209": {
      "js": [
        {
          "file": "assets/js/01a85c17.746c248a.js",
          "hash": "5292d66c8ef19f00",
          "publicPath": "/siteprod/assets/js/01a85c17.746c248a.js"
        }
      ]
    },
    "8288": {
      "js": [
        {
          "file": "assets/js/38df7c1a.739ab07a.js",
          "hash": "b7ff8ce08e8405e0",
          "publicPath": "/siteprod/assets/js/38df7c1a.739ab07a.js"
        }
      ]
    },
    "8401": {
      "js": [
        {
          "file": "assets/js/17896441.c6a2cc1e.js",
          "hash": "03131a44114ced4b",
          "publicPath": "/siteprod/assets/js/17896441.c6a2cc1e.js"
        }
      ]
    },
    "8581": {
      "js": [
        {
          "file": "assets/js/935f2afb.8dea36ab.js",
          "hash": "a46836022a06f6ca",
          "publicPath": "/siteprod/assets/js/935f2afb.8dea36ab.js"
        }
      ]
    },
    "8609": {
      "js": [
        {
          "file": "assets/js/925b3f96.402ec199.js",
          "hash": "0c275c15d98dc586",
          "publicPath": "/siteprod/assets/js/925b3f96.402ec199.js"
        }
      ]
    },
    "8700": {
      "js": [
        {
          "file": "assets/js/19acdbb1.64a256f2.js",
          "hash": "7492fa54102a3d30",
          "publicPath": "/siteprod/assets/js/19acdbb1.64a256f2.js"
        }
      ]
    },
    "8737": {
      "js": [
        {
          "file": "assets/js/7661071f.853a25e1.js",
          "hash": "a945ddd1019e3a08",
          "publicPath": "/siteprod/assets/js/7661071f.853a25e1.js"
        }
      ]
    },
    "8747": {
      "js": [
        {
          "file": "assets/js/8747.5e00157e.js",
          "hash": "2e3ce7320783f3f0",
          "publicPath": "/siteprod/assets/js/8747.5e00157e.js"
        }
      ]
    },
    "8792": {
      "js": [
        {
          "file": "assets/js/main.c2f5d104.js",
          "hash": "d6a3a9dcc02dbb36",
          "publicPath": "/siteprod/assets/js/main.c2f5d104.js"
        }
      ]
    },
    "8863": {
      "js": [
        {
          "file": "assets/js/f55d3e7a.9d7db576.js",
          "hash": "fb005b3039e40f31",
          "publicPath": "/siteprod/assets/js/f55d3e7a.9d7db576.js"
        }
      ]
    },
    "8934": {
      "js": [
        {
          "file": "assets/js/5e095005.7c868c2d.js",
          "hash": "b9faf66d951faa91",
          "publicPath": "/siteprod/assets/js/5e095005.7c868c2d.js"
        }
      ]
    },
    "9048": {
      "js": [
        {
          "file": "assets/js/a94703ab.cb170dfc.js",
          "hash": "81c1a2d7928e9b04",
          "publicPath": "/siteprod/assets/js/a94703ab.cb170dfc.js"
        }
      ]
    },
    "9170": {
      "js": [
        {
          "file": "assets/js/eb7f898f.db5db91b.js",
          "hash": "9440bc1c2cf7a867",
          "publicPath": "/siteprod/assets/js/eb7f898f.db5db91b.js"
        }
      ]
    },
    "9262": {
      "js": [
        {
          "file": "assets/js/18c41134.51685317.js",
          "hash": "a95eb2e73ee5821f",
          "publicPath": "/siteprod/assets/js/18c41134.51685317.js"
        }
      ]
    },
    "9325": {
      "js": [
        {
          "file": "assets/js/59362658.6c914ada.js",
          "hash": "24463664302b2a74",
          "publicPath": "/siteprod/assets/js/59362658.6c914ada.js"
        }
      ]
    },
    "9328": {
      "js": [
        {
          "file": "assets/js/e273c56f.f460e8ec.js",
          "hash": "00a475aaa7644e30",
          "publicPath": "/siteprod/assets/js/e273c56f.f460e8ec.js"
        }
      ]
    },
    "9647": {
      "js": [
        {
          "file": "assets/js/5e95c892.473c687d.js",
          "hash": "9c95b59cc41bd9c0",
          "publicPath": "/siteprod/assets/js/5e95c892.473c687d.js"
        }
      ]
    },
    "9771": {
      "js": [
        {
          "file": "assets/js/14b1200f.dc584653.js",
          "hash": "4751d06eb151ed5d",
          "publicPath": "/siteprod/assets/js/14b1200f.dc584653.js"
        }
      ]
    }
  }
}